<?xml version="1.0" encoding="UTF-8" standalone="no"?>
<!-- Created with Inkscape (http://www.inkscape.org/) -->

<svg
   xmlns:dc="http://purl.org/dc/elements/1.1/"
   xmlns:cc="http://creativecommons.org/ns#"
   xmlns:rdf="http://www.w3.org/1999/02/22-rdf-syntax-ns#"
   xmlns:svg="http://www.w3.org/2000/svg"
   xmlns="http://www.w3.org/2000/svg"
   xmlns:sodipodi="http://sodipodi.sourceforge.net/DTD/sodipodi-0.dtd"
   xmlns:inkscape="http://www.inkscape.org/namespaces/inkscape"
   width="146.60001mm"
   height="18.6mm"
   viewBox="0 0 146.6 18.6"
   version="1.1"
   id="svg400"
   inkscape:version="0.92.3 (2405546, 2018-03-11)"
   sodipodi:docname="white-logo.svg">
  <defs
     id="defs394" />
  <sodipodi:namedview
     id="base"
     pagecolor="#ffffff"
     bordercolor="#666666"
     borderopacity="1.0"
     inkscape:pageopacity="0.0"
     inkscape:pageshadow="2"
     inkscape:zoom="1.4"
     inkscape:cx="298.55391"
     inkscape:cy="44.352645"
     inkscape:document-units="mm"
     inkscape:current-layer="layer1"
     showgrid="false"
     inkscape:window-width="1600"
     inkscape:window-height="837"
     inkscape:window-x="0"
     inkscape:window-y="30"
     inkscape:window-maximized="1" />
  <metadata
     id="metadata397">
    <rdf:RDF>
      <cc:Work
         rdf:about="">
        <dc:format>image/svg+xml</dc:format>
        <dc:type
           rdf:resource="http://purl.org/dc/dcmitype/StillImage" />
        <dc:title></dc:title>
      </cc:Work>
    </rdf:RDF>
  </metadata>
  <g
     inkscape:label="Layer 1"
     inkscape:groupmode="layer"
     id="layer1"
     transform="translate(0,-278.4)">
    <g
       id="g454"
       transform="translate(111.95345,234.31066)"
       style="fill:#ffffff;fill-opacity:1">
      <g
         transform="matrix(0.35277777,0,0,-0.35277777,-103.28281,62.739345)"
         id="g222"
         style="fill:#ffffff;fill-opacity:1">
        <path
           inkscape:connector-curvature="0"
           id="path224"
           style="fill:#ffffff;fill-opacity:1;fill-rule:nonzero;stroke:none"
           d="m 0,0 h -21.683 c -0.87,0 -1.499,0.204 -1.887,0.613 -0.389,0.408 -0.583,1.069 -0.583,1.982 v 8.435 c 0,0.913 0.194,1.574 0.583,1.983 0.388,0.408 1.017,0.613 1.887,0.613 h 18.458 c 0.594,0 1.04,0.204 1.338,0.613 0.297,0.407 0.446,0.901 0.446,1.478 0,0.816 -0.149,1.417 -0.446,1.802 -0.298,0.384 -0.744,0.601 -1.338,0.649 l -10.293,1.514 c -3.202,0.48 -5.775,1.586 -7.719,3.316 -1.945,1.731 -2.916,4.614 -2.916,8.651 v 7.57 c 0,4.085 1.257,7.221 3.774,9.409 2.515,2.186 5.992,3.28 10.429,3.28 H 9.264 c 0.868,0 1.497,-0.205 1.886,-0.613 0.389,-0.409 0.584,-1.07 0.584,-1.982 v -8.58 c 0,-0.913 -0.195,-1.574 -0.584,-1.982 -0.389,-0.409 -1.018,-0.613 -1.886,-0.613 H -6.725 c -0.594,0 -1.052,-0.205 -1.372,-0.613 -0.32,-0.409 -0.48,-0.926 -0.48,-1.55 0,-0.625 0.16,-1.153 0.48,-1.586 0.32,-0.432 0.778,-0.674 1.372,-0.721 L 3.5,32.226 c 3.201,-0.481 5.786,-1.586 7.753,-3.316 1.967,-1.73 2.951,-4.614 2.951,-8.651 V 12.688 C 14.204,8.603 12.935,5.467 10.396,3.28 7.857,1.093 4.392,0 0,0" />
      </g>
      <g
         transform="matrix(0.35277777,0,0,-0.35277777,-88.589295,62.739345)"
         id="g226"
         style="fill:#ffffff;fill-opacity:1">
        <path
           inkscape:connector-curvature="0"
           id="path228"
           style="fill:#ffffff;fill-opacity:1;fill-rule:nonzero;stroke:none"
           d="m 0,0 h -10.636 c -0.869,0 -1.498,0.204 -1.886,0.613 -0.39,0.408 -0.584,1.069 -0.584,1.982 v 46.718 c 0,0.912 0.194,1.573 0.584,1.982 0.388,0.408 1.017,0.613 1.886,0.613 H 0 c 0.869,0 1.498,-0.205 1.887,-0.613 0.388,-0.409 0.584,-1.07 0.584,-1.982 V 32.731 h 2.744 l 7.068,16.798 c 0.32,0.865 0.755,1.478 1.303,1.838 0.55,0.361 1.258,0.541 2.128,0.541 h 10.567 c 0.777,0 1.304,-0.205 1.578,-0.613 0.275,-0.409 0.251,-0.998 -0.068,-1.766 L 20.792,32.731 c 2.561,-0.144 4.608,-1.094 6.141,-2.848 1.532,-1.755 2.298,-4.073 2.298,-6.957 V 2.595 C 29.231,1.682 29.037,1.021 28.648,0.613 28.259,0.204 27.63,0 26.761,0 H 16.194 c -0.869,0 -1.499,0.204 -1.887,0.613 -0.389,0.408 -0.583,1.069 -0.583,1.982 v 14.059 c 0,0.768 -0.183,1.369 -0.549,1.802 -0.367,0.433 -0.916,0.649 -1.647,0.649 H 2.471 V 2.595 C 2.471,1.682 2.275,1.021 1.887,0.613 1.498,0.204 0.869,0 0,0" />
      </g>
      <g
         transform="matrix(0.35277777,0,0,-0.35277777,-64.382142,62.739345)"
         id="g230"
         style="fill:#ffffff;fill-opacity:1">
        <path
           inkscape:connector-curvature="0"
           id="path232"
           style="fill:#ffffff;fill-opacity:1;fill-rule:nonzero;stroke:none"
           d="m 0,0 h -11.116 c -0.87,0 -1.499,0.204 -1.887,0.613 -0.39,0.408 -0.583,1.069 -0.583,1.982 v 9.229 l -10.499,14.779 c -1.053,1.489 -1.75,2.787 -2.093,3.893 -0.343,1.105 -0.515,2.763 -0.515,4.975 v 13.842 c 0,0.912 0.194,1.573 0.584,1.982 0.388,0.408 1.017,0.613 1.886,0.613 h 10.568 c 0.868,0 1.498,-0.205 1.887,-0.613 0.388,-0.409 0.583,-1.07 0.583,-1.982 V 37.489 c 0,-0.481 0.022,-0.986 0.069,-1.514 0.045,-0.529 0.228,-1.034 0.549,-1.514 l 3.156,-5.19 c 0.228,-0.433 0.469,-0.746 0.721,-0.938 0.251,-0.192 0.559,-0.288 0.926,-0.288 h 0.686 c 0.366,0 0.675,0.096 0.926,0.288 0.251,0.192 0.491,0.505 0.721,0.938 l 3.157,5.19 c 0.319,0.48 0.502,0.985 0.548,1.514 0.045,0.528 0.069,1.033 0.069,1.514 v 11.824 c 0,0.912 0.194,1.573 0.583,1.982 0.388,0.408 1.018,0.613 1.887,0.613 h 10.224 c 0.869,0 1.498,-0.205 1.887,-0.613 0.389,-0.409 0.583,-1.07 0.583,-1.982 V 35.471 c 0,-2.212 -0.183,-3.87 -0.549,-4.975 C 14.592,29.39 13.906,28.092 12.9,26.603 L 2.47,11.751 V 2.595 C 2.47,1.682 2.275,1.021 1.887,0.613 1.498,0.204 0.868,0 0,0" />
      </g>
      <g
         transform="matrix(0.35277777,0,0,-0.35277777,-42.13633,62.739345)"
         id="g234"
         style="fill:#ffffff;fill-opacity:1">
        <path
           inkscape:connector-curvature="0"
           id="path236"
           style="fill:#ffffff;fill-opacity:1;fill-rule:nonzero;stroke:none"
           d="m 0,0 h -16.743 c -5.719,0 -9.961,1.201 -12.729,3.604 -2.768,2.403 -4.151,6.104 -4.151,11.104 v 22.421 c 0,4.998 1.383,8.711 4.151,11.138 2.768,2.427 7.01,3.641 12.729,3.641 H 0 c 0.869,0 1.498,-0.205 1.887,-0.613 0.388,-0.409 0.583,-1.07 0.583,-1.982 V 40.589 C 2.47,39.676 2.275,39.014 1.887,38.606 1.498,38.198 0.869,37.994 0,37.994 h -13.792 c -1.418,0 -2.47,-0.301 -3.157,-0.901 -0.686,-0.602 -1.029,-1.503 -1.029,-2.704 V 17.23 c 0,-1.201 0.343,-2.079 1.029,-2.631 0.687,-0.553 1.739,-0.829 3.157,-0.829 H 0 c 0.869,0 1.498,-0.205 1.887,-0.613 0.388,-0.408 0.583,-1.07 0.583,-1.982 V 2.595 C 2.47,1.682 2.275,1.021 1.887,0.613 1.498,0.204 0.869,0 0,0" />
      </g>
      <g
         transform="matrix(0.35277777,0,0,-0.35277777,-30.638139,49.005319)"
         id="g238"
         style="fill:#ffffff;fill-opacity:1">
        <path
           inkscape:connector-curvature="0"
           id="path240"
           style="fill:#ffffff;fill-opacity:1;fill-rule:nonzero;stroke:none"
           d="m 0,0 v -9.228 h 5.146 c 1.189,0 1.99,0.324 2.402,0.973 0.411,0.649 0.618,1.453 0.618,2.415 v 2.451 c 0,0.961 -0.207,1.767 -0.618,2.415 C 7.136,-0.325 6.335,0 5.146,0 Z m -2.47,-38.931 h -10.568 c -0.869,0 -1.499,0.204 -1.886,0.613 -0.39,0.407 -0.584,1.068 -0.584,1.982 v 46.717 c 0,0.913 0.194,1.574 0.584,1.983 0.387,0.408 1.017,0.613 1.886,0.613 H 9.813 c 5.122,0 8.656,-1.118 10.601,-3.352 C 22.358,7.39 23.33,4.494 23.33,0.937 v -3.316 c 0,-2.019 -0.286,-3.738 -0.857,-5.155 -0.573,-1.418 -1.568,-2.44 -2.985,-3.064 2.47,-0.288 4.47,-1.346 6.004,-3.172 1.532,-1.827 2.299,-4.254 2.299,-7.282 v -15.284 c 0,-0.914 -0.196,-1.575 -0.584,-1.982 -0.389,-0.409 -1.019,-0.613 -1.887,-0.613 H 14.684 c -0.869,0 -1.498,0.204 -1.887,0.613 -0.389,0.407 -0.583,1.068 -0.583,1.982 v 11.031 c 0,1.056 -0.195,1.838 -0.583,2.343 -0.389,0.504 -1.064,0.757 -2.025,0.757 H 0 v -14.131 c 0,-0.914 -0.195,-1.575 -0.583,-1.982 -0.39,-0.409 -1.019,-0.613 -1.887,-0.613" />
      </g>
      <g
         transform="matrix(0.35277777,0,0,-0.35277777,-9.3844769,49.768412)"
         id="g242"
         style="fill:#ffffff;fill-opacity:1">
        <path
           inkscape:connector-curvature="0"
           id="path244"
           style="fill:#ffffff;fill-opacity:1;fill-rule:nonzero;stroke:none"
           d="M 0,0 -3.225,-10.958 H 7.548 L 4.323,0 C 4.14,0.433 3.946,0.745 3.74,0.937 3.534,1.129 3.293,1.226 3.02,1.226 H 1.304 C 1.029,1.226 0.789,1.129 0.583,0.937 0.377,0.745 0.182,0.433 0,0 m -3.911,-34.173 c 0,-0.913 -0.195,-1.575 -0.584,-1.982 -0.389,-0.409 -1.018,-0.613 -1.886,-0.613 h -10.087 c -0.87,0 -1.499,0.204 -1.887,0.613 -0.39,0.407 -0.583,1.069 -0.583,1.982 v 19.033 c 0,1.442 0.216,3.1 0.651,4.975 0.434,1.874 1.109,4.061 2.025,6.561 l 5.97,16.365 c 0.274,0.817 0.696,1.417 1.269,1.802 0.571,0.384 1.314,0.577 2.23,0.577 h 18.458 c 0.869,0 1.589,-0.193 2.162,-0.577 0.571,-0.385 0.995,-0.985 1.269,-1.802 l 5.97,-16.365 c 0.914,-2.5 1.589,-4.687 2.024,-6.561 0.434,-1.875 0.652,-3.533 0.652,-4.975 v -19.033 c 0,-0.913 -0.195,-1.575 -0.583,-1.982 -0.389,-0.409 -1.019,-0.613 -1.887,-0.613 H 10.911 c -0.916,0 -1.591,0.204 -2.025,0.613 -0.435,0.407 -0.652,1.069 -0.652,1.982 V -24.08 H -3.911 Z" />
      </g>
      <g
         transform="matrix(0.35277777,0,0,-0.35277777,11.651453,62.739345)"
         id="g246"
         style="fill:#ffffff;fill-opacity:1">
        <path
           inkscape:connector-curvature="0"
           id="path248"
           style="fill:#ffffff;fill-opacity:1;fill-rule:nonzero;stroke:none"
           d="m 0,0 h -11.116 c -0.869,0 -1.499,0.204 -1.887,0.613 -0.389,0.408 -0.583,1.069 -0.583,1.982 v 35.399 h -10.087 c -0.869,0 -1.499,0.204 -1.887,0.612 -0.389,0.408 -0.584,1.07 -0.584,1.983 v 8.724 c 0,0.912 0.195,1.573 0.584,1.982 0.388,0.408 1.018,0.613 1.887,0.613 h 36.23 c 0.869,0 1.498,-0.205 1.887,-0.613 0.389,-0.409 0.583,-1.07 0.583,-1.982 v -8.724 c 0,-0.913 -0.194,-1.575 -0.583,-1.983 -0.389,-0.408 -1.018,-0.612 -1.887,-0.612 H 2.47 V 2.595 C 2.47,1.682 2.275,1.021 1.887,0.613 1.498,0.204 0.869,0 0,0" />
      </g>
      <g
         transform="matrix(0.35277777,0,0,-0.35277777,33.824943,62.739345)"
         id="g250"
         style="fill:#ffffff;fill-opacity:1">
        <path
           inkscape:connector-curvature="0"
           id="path252"
           style="fill:#ffffff;fill-opacity:1;fill-rule:nonzero;stroke:none"
           d="m 0,0 h -31.839 c -0.869,0 -1.499,0.204 -1.887,0.613 -0.389,0.408 -0.583,1.069 -0.583,1.982 v 46.718 c 0,0.912 0.194,1.573 0.583,1.982 0.388,0.408 1.018,0.613 1.887,0.613 H 0 c 0.869,0 1.498,-0.205 1.887,-0.613 0.388,-0.409 0.583,-1.07 0.583,-1.982 V 40.877 C 2.47,39.964 2.275,39.303 1.887,38.895 1.498,38.486 0.869,38.282 0,38.282 h -18.939 v -5.551 h 13.381 c 0.868,0 1.497,-0.205 1.887,-0.613 0.388,-0.409 0.583,-1.07 0.583,-1.982 v -7.715 c 0,-0.913 -0.195,-1.574 -0.583,-1.982 -0.39,-0.409 -1.019,-0.613 -1.887,-0.613 h -13.381 v -6.2 H 0 c 0.869,0 1.498,-0.205 1.887,-0.613 C 2.275,12.604 2.47,11.943 2.47,11.03 V 2.595 C 2.47,1.682 2.275,1.021 1.887,0.613 1.498,0.204 0.869,0 0,0" />
      </g>
    </g>
  </g>
</svg>
